{
  "name": "MeetNetworkHTTP",
  "version": "0.0.6",
  "summary": "MeetNetworkHTTP is an HTTP networking library written in Swift.",
  "homepage": "https://meetinglawyers.com",
  "license": {
    "type": "Copyright",
    "text": "Copyright © 2021 MeetingLawyers S.L. All rights reserved."
  },
  "authors": {
    "Manel Roca": "manel.roca@meetinglawyers.com"
  },
  "source": {
    "git": "https://github.com/MeetingLawyers/ios-meeting-shared.git",
    "tag": "MeetNetworkHTTP-0.0.6"
  },
  "platforms": {
    "ios": "13.0"
  },
  "swift_versions": "5.3",
  "source_files": "MeetNetwork/MeetNetworkHTTP/**/*.{swift}",
  "pod_target_xcconfig": {
    "EXCLUDED_ARCHS[sdk=iphonesimulator*]": "arm64"
  },
  "user_target_xcconfig": {
    "EXCLUDED_ARCHS[sdk=iphonesimulator*]": "arm64"
  },
  "testspecs": [
    {
      "name": "Tests",
      "test_type": "unit",
      "source_files": "MeetNetwork/MeetNetworkHTTPTests/**/*.swift"
    }
  ],
  "swift_version": "5.3"
}
