{
  "name": "MeetingLawyers-Schema",
  "version": "1.0.3",
  "summary": "MeetingLawyersSDK Schema Framework for iOS",
  "authors": {
    "MeetingLawyers, S.L.": "info@meetinglawyers.com"
  },
  "license": {
    "type": "Copyright",
    "text": "Copyright © 2021 MeetingLawyers S.L. All rights reserved."
  },
  "source": {
    "http": "https://meetinglawyers.jfrog.io/artifactory/iOS/legacy-library/1.0.3/MeetingLawyersSchema_1.0.3.zip"
  },
  "homepage": "https://www.meetinglawyers.com",
  "platforms": {
    "ios": "11.0"
  },
  "swift_versions": "5.3",
  "module_name": "MeetingLawyersSchema",
  "ios": {
    "frameworks": [
      "Foundation",
      "UIKit",
      "AdSupport"
    ],
    "vendored_frameworks": "MediQuo/MeetingLawyersSchema.framework",
    "dependencies": {
      "MeetingLawyers-Core": [
        "1.0.3"
      ]
    }
  },
  "pod_target_xcconfig": {
    "EXCLUDED_ARCHS[sdk=iphonesimulator*]": "arm64"
  },
  "user_target_xcconfig": {
    "EXCLUDED_ARCHS[sdk=iphonesimulator*]": "arm64"
  },
  "swift_version": "5.3"
}
