{
  "name": "MeetingLawyers-Controller",
  "version": "1.0.10-migration4",
  "summary": "MeetingLawyersSDK Controller Framework for iOS",
  "authors": {
    "MeetingLawyers, S.L.": "info@meetinglawyers.com"
  },
  "license": {
    "type": "Copyright",
    "text": "Copyright © 2021 MeetingLawyers S.L. All rights reserved."
  },
  "homepage": "https://www.meetinglawyers.com",
  "platforms": {
    "ios": "11.0"
  },
  "swift_versions": "5.5",
  "module_name": "MeetingLawyersController",
  "ios": {
    "frameworks": [
      "Foundation",
      "CoreLocation",
      "UIKit",
      "Photos",
      "AdSupport"
    ],
    "vendored_frameworks": "MeetingLawyers/MeetingLawyersController.xcframework",
    "dependencies": {
      "MeetingLawyers-Core": [
        "1.0.10-migration4"
      ],
      "MeetingLawyers-Schema": [
        "1.0.10-migration4"
      ],
      "RxBlocking": [
        "6.2.0"
      ],
      "RxSwift": [
        "6.2.0"
      ],
      "SwiftDate": [
        "4.5.1"
      ],
      "AWSMobileClient": [
        "2.16.0"
      ],
      "AWSS3": [
        "2.16.0"
      ]
    }
  },
  "pod_target_xcconfig": {
    "EXCLUDED_ARCHS[sdk=iphonesimulator*]": "arm64",
    "BUILD_LIBRARY_FOR_DISTRIBUTION": "YES"
  },
  "source": {
    "http": "https://meetinglawyers.jfrog.io/artifactory/iOS/legacy-library/1.0.10-migration4/MeetingLawyersSDK_1.0.10-migration4.zip"
  },
  "swift_version": "5.5"
}
