{
  "name": "MeetingLawyers-Core",
  "version": "1.0.0",
  "summary": "MeetingLawyersSDK Core Framework for iOS",
  "authors": {
    "MeetingLawyers, S.L.": "info@meetinglawyers.com"
  },
  "license": {
    "type": "Copyright",
    "text": "Copyright © 2021 MeetingLawyers S.L. All rights reserved."
  },
  "source": {
    "http": "https://meetinglawyers.jfrog.io/artifactory/iOS/legacy-library/1.0.0/MeetingLawyersCore_1.0.0.zip"
  },
  "homepage": "https://www.meetinglawyers.com",
  "platforms": {
    "ios": "11.0"
  },
  "swift_versions": "5.3",
  "module_name": "MeetingLawyersCore",
  "ios": {
    "dependencies": {
      "CryptoSwift": [
        "~> 1.0"
      ]
    },
    "frameworks": [
      "Foundation",
      "UIKit",
      "CoreLocation",
      "AVFoundation"
    ],
    "vendored_frameworks": "MediQuo/MeetingLawyersCore.framework"
  },
  "pod_target_xcconfig": {
    "EXCLUDED_ARCHS[sdk=iphonesimulator*]": "arm64"
  },
  "user_target_xcconfig": {
    "EXCLUDED_ARCHS[sdk=iphonesimulator*]": "arm64"
  },
  "swift_version": "5.3"
}
