{
  "name": "MeetingLawyers",
  "version": "2.0.0-alpha45",
  "summary": "A MeetingLawyers SDK.",
  "swift_versions": [
    "5.0"
  ],
  "description": "A MeetingLawyers SDK for chat and video call.\n[SDK Doc](https://developer.meetinglawyers.com/)",
  "homepage": "https://www.meetinglawyers.com",
  "license": {
    "type": "Copyright",
    "text": "Copyright © 2022 MeetingLawyers S.L. All rights reserved."
  },
  "source": {
    "http": "https://meetinglawyers-ios-sdk.s3.eu-west-3.amazonaws.com/new-sdk/2.0.0-alpha45/MeetingLawyers_2.0.0-alpha45.zip"
  },
  "authors": {
    "MeetingLawyers": "accounts@meetinglawyers.com"
  },
  "platforms": {
    "ios": "14.0"
  },
  "ios": {
    "vendored_frameworks": "MeetingLawyers/MeetingLawyers.xcframework",
    "dependencies": {
      "Socket.IO-Client-Swift": [
        "15.2.0"
      ],
      "TUSKit": [
        "3.3"
      ]
    }
  },
  "swift_version": "5.0"
}
