{
  "name": "MeetingLawyers-Storage",
  "version": "1.2.0-migration4",
  "summary": "MeetingLawyersSDK Storage Framework for iOS",
  "authors": {
    "MeetingLawyers, S.L.": "info@meetinglawyers.com"
  },
  "license": {
    "type": "Copyright",
    "text": "Copyright © 2021 MeetingLawyers S.L. All rights reserved."
  },
  "homepage": "https://www.meetinglawyers.com",
  "platforms": {
    "ios": "13.0"
  },
  "swift_versions": "5.5",
  "module_name": "MeetingLawyersStorage",
  "ios": {
    "frameworks": [
      "Foundation",
      "CoreLocation",
      "UIKit"
    ],
    "vendored_frameworks": "MeetingLawyers/MeetingLawyersStorage.xcframework",
    "dependencies": {
      "MeetingLawyers-Core": [
        "1.2.0-migration4"
      ],
      "MeetingLawyers-Schema": [
        "1.2.0-migration4"
      ],
      "MeetingLawyers-Controller": [
        "1.2.0-migration4"
      ],
      "MeetingLawyers-Socket": [
        "1.2.0-migration4"
      ],
      "RealmSwift": [
        "10.17.0"
      ]
    }
  },
  "pod_target_xcconfig": {
    "EXCLUDED_ARCHS[sdk=iphonesimulator*]": "arm64",
    "BUILD_LIBRARY_FOR_DISTRIBUTION": "YES"
  },
  "source": {
    "http": "https://meetinglawyers-ios-sdk.s3.eu-west-3.amazonaws.com/legacy-library/1.2.0-migration4/MeetingLawyersSDK_1.2.0-migration4.zip"
  },
  "swift_version": "5.5"
}
