{
  "name": "MeetingLawyers-Storage",
  "version": "1.0.2",
  "summary": "MeetingLawyersSDK Storage Framework for iOS",
  "authors": {
    "MeetingLawyers, S.L.": "info@meetinglawyers.com"
  },
  "license": {
    "type": "Copyright",
    "text": "Copyright © 2021 MeetingLawyers S.L. All rights reserved."
  },
  "source": {
    "http": "https://meetinglawyers.jfrog.io/artifactory/iOS/legacy-library/1.0.2/MeetingLawyersStorage_1.0.2.zip"
  },
  "homepage": "https://www.meetinglawyers.com",
  "platforms": {
    "ios": "11.0"
  },
  "swift_versions": "5.3",
  "module_name": "MeetingLawyersStorage",
  "ios": {
    "frameworks": [
      "Foundation",
      "CoreLocation",
      "UIKit"
    ],
    "vendored_frameworks": "MediQuo/MeetingLawyersStorage.framework",
    "dependencies": {
      "MeetingLawyers-Core": [
        "1.0.2"
      ],
      "MeetingLawyers-Schema": [
        "1.0.2"
      ],
      "MeetingLawyers-Controller": [
        "1.0.2"
      ],
      "MeetingLawyers-Socket": [
        "1.0.2"
      ],
      "RealmSwift": [
        "10.1.2"
      ]
    }
  },
  "pod_target_xcconfig": {
    "EXCLUDED_ARCHS[sdk=iphonesimulator*]": "arm64"
  },
  "user_target_xcconfig": {
    "EXCLUDED_ARCHS[sdk=iphonesimulator*]": "arm64"
  },
  "swift_version": "5.3"
}
