{
  "name": "MeetingLawyers-Controller",
  "version": "1.0.1",
  "summary": "MeetingLawyersSDK Controller Framework for iOS",
  "authors": {
    "MeetingLawyers, S.L.": "info@meetinglawyers.com"
  },
  "license": {
    "type": "Copyright",
    "text": "Copyright © 2021 MeetingLawyers S.L. All rights reserved."
  },
  "source": {
    "http": "https://meetinglawyers.jfrog.io/artifactory/iOS/legacy-library/1.0.1/MeetingLawyersController_1.0.1.zip"
  },
  "homepage": "https://www.meetinglawyers.com",
  "platforms": {
    "ios": "11.0"
  },
  "swift_versions": "5.3",
  "module_name": "MeetingLawyersController",
  "ios": {
    "frameworks": [
      "Foundation",
      "CoreLocation",
      "UIKit",
      "Photos",
      "AdSupport"
    ],
    "vendored_frameworks": "MediQuo/MeetingLawyersController.framework",
    "dependencies": {
      "MeetingLawyers-Core": [
        "1.0.1"
      ],
      "MeetingLawyers-Schema": [
        "1.0.1"
      ],
      "RxBlocking": [
        "5.1.0"
      ],
      "RxSwift": [
        "5.1.0"
      ],
      "SwiftDate": [
        "4.5.1"
      ],
      "AWSMobileClient": [
        "2.16.0"
      ],
      "AWSS3": [
        "2.16.0"
      ]
    }
  },
  "pod_target_xcconfig": {
    "EXCLUDED_ARCHS[sdk=iphonesimulator*]": "arm64"
  },
  "user_target_xcconfig": {
    "EXCLUDED_ARCHS[sdk=iphonesimulator*]": "arm64"
  },
  "swift_version": "5.3"
}
