{
  "name": "MeetingLawyers",
  "version": "2.0.0-alpha12",
  "summary": "A MeetingLawyers SDK.",
  "description": "A MeetingLawyers SDK.",
  "homepage": "https://www.meetinglawyers.com",
  "license": {
    "type": "Copyright",
    "text": "Copyright © 2022 MeetingLawyers S.L. All rights reserved."
  },
  "source": {
    "http": "https://meetinglawyers-ios-sdk.s3.eu-west-3.amazonaws.com/new-sdk/2.0.0-alpha12/MeetingLawyers_2.0.0-alpha12.zip"
  },
  "authors": {
    "MeetingLawyers": "accounts@meetinglawyers.com"
  },
  "platforms": {
    "ios": "14.0"
  },
  "ios": {
    "vendored_frameworks": "MeetingLawyers/MeetingLawyers.xcframework",
    "dependencies": {
      "Socket.IO-Client-Swift": [
        "15.2.0"
      ]
    }
  }
}
