{
  "name": "MeetingLawyers-Controller",
  "version": "1.3.0-migration3",
  "summary": "MeetingLawyersSDK Controller Framework for iOS",
  "authors": {
    "MeetingLawyers, S.L.": "info@meetinglawyers.com"
  },
  "license": {
    "type": "Copyright",
    "text": "Copyright © 2021 MeetingLawyers S.L. All rights reserved."
  },
  "homepage": "https://www.meetinglawyers.com",
  "platforms": {
    "ios": "13.0"
  },
  "swift_versions": "5.5",
  "module_name": "MeetingLawyersController",
  "ios": {
    "frameworks": [
      "Foundation",
      "CoreLocation",
      "UIKit",
      "Photos",
      "AdSupport"
    ],
    "vendored_frameworks": "MeetingLawyers/MeetingLawyersController.xcframework",
    "dependencies": {
      "MeetingLawyers-Core": [
        "1.3.0-migration3"
      ],
      "MeetingLawyers-Schema": [
        "1.3.0-migration3"
      ],
      "RxBlocking": [
        "6.6.0"
      ],
      "RxSwift": [
        "6.6.0"
      ]
    }
  },
  "pod_target_xcconfig": {
    "EXCLUDED_ARCHS[sdk=iphonesimulator*]": "arm64",
    "BUILD_LIBRARY_FOR_DISTRIBUTION": "YES"
  },
  "source": {
    "http": "https://meetinglawyers-ios-sdk.s3.eu-west-3.amazonaws.com/legacy-library/1.3.0-migration3/MeetingLawyersSDK_1.3.0-migration3.zip"
  },
  "swift_version": "5.5"
}
