{
  "name": "MeetingLawyers-Remote",
  "version": "1.1.0-migration2",
  "summary": "MeetingLawyersSDK Remote Framework for iOS",
  "authors": {
    "MeetingLawyers, S.L.": "info@meetinglawyers.com"
  },
  "license": {
    "type": "Copyright",
    "text": "Copyright © 2021 MeetingLawyers S.L. All rights reserved."
  },
  "homepage": "https://www.meetinglawyers.com",
  "platforms": {
    "ios": "13.0"
  },
  "swift_versions": "5.5",
  "module_name": "MeetingLawyersRemote",
  "ios": {
    "frameworks": [
      "Foundation",
      "UIKit"
    ],
    "vendored_frameworks": "MeetingLawyers/MeetingLawyersRemote.xcframework",
    "dependencies": {
      "MeetingLawyers-Core": [
        "1.1.0-migration2"
      ],
      "MeetingLawyers-Schema": [
        "1.1.0-migration2"
      ],
      "MeetingLawyers-Controller": [
        "1.1.0-migration2"
      ],
      "AlamofireImage": [
        "3.6.0"
      ],
      "Alamofire": [
        "4.9.1"
      ]
    }
  },
  "pod_target_xcconfig": {
    "EXCLUDED_ARCHS[sdk=iphonesimulator*]": "arm64",
    "BUILD_LIBRARY_FOR_DISTRIBUTION": "YES"
  },
  "source": {
    "http": "https://meetinglawyers-ios-sdk.s3.eu-west-3.amazonaws.com/legacy-library/1.1.0-migration2/MeetingLawyersSDK_1.1.0-migration2.zip"
  },
  "swift_version": "5.5"
}
