{
  "name": "MeetingLawyersSDK",
  "version": "1.0.10-socket1",
  "summary": "MeetingLawyersSDK Framework for iOS",
  "authors": {
    "MeetingLawyers, S.L.": "info@meetinglawyers.com"
  },
  "license": {
    "type": "Copyright",
    "text": "Copyright © 2021 MeetingLawyers S.L. All rights reserved."
  },
  "source": {
    "http": "https://meetinglawyers.jfrog.io/artifactory/iOS/legacy-library/1.0.10-socket1/MeetingLawyersSDK_1.0.10-socket1.zip"
  },
  "homepage": "https://www.meetinglawyers.com",
  "platforms": {
    "ios": "11.0"
  },
  "swift_versions": "5.5",
  "module_name": "MeetingLawyersSDK",
  "ios": {
    "frameworks": [
      "Foundation",
      "CoreLocation",
      "UIKit",
      "Photos",
      "StoreKit"
    ],
    "vendored_frameworks": "MeetingLawyers/MeetingLawyersSDK.xcframework",
    "dependencies": {
      "MeetingLawyers-Core": [
        "1.0.10-socket1"
      ],
      "MeetingLawyers-Schema": [
        "1.0.10-socket1"
      ],
      "MeetingLawyers-Controller": [
        "1.0.10-socket1"
      ],
      "MeetingLawyers-Remote": [
        "1.0.10-socket1"
      ],
      "MeetingLawyers-Socket": [
        "1.0.10-socket1"
      ],
      "MeetingLawyers-Storage": [
        "1.0.10-socket1"
      ],
      "AlamofireImage": [
        "3.6.0"
      ],
      "MessageKit": [
        "2.0.0"
      ],
      "R.swift": [
        "5.1.0"
      ],
      "Swinject": [
        "2.6.0"
      ],
      "SwinjectStoryboard": [
        "2.2.0"
      ],
      "RxCocoa": [
        "6.2.0"
      ],
      "SDWebImage": [
        "5.0"
      ],
      "OpenTok": [
        "2.20.1"
      ],
      "Device": [
        "3.1.2"
      ],
      "SwipeCellKit": [
        "2.5.4"
      ],
      "TUSKit": [
        "3.1.1"
      ]
    }
  },
  "pod_target_xcconfig": {
    "EXCLUDED_ARCHS[sdk=iphonesimulator*]": "arm64",
    "BUILD_LIBRARY_FOR_DISTRIBUTION": "YES"
  },
  "user_target_xcconfig": {
    "EXCLUDED_ARCHS[sdk=iphonesimulator*]": "arm64",
    "BUILD_LIBRARY_FOR_DISTRIBUTION": "YES"
  },
  "swift_version": "5.5"
}
