{
  "name": "MeetingLawyers-Schema",
  "version": "1.2.0-migration17",
  "summary": "MeetingLawyersSDK Schema Framework for iOS",
  "authors": {
    "MeetingLawyers, S.L.": "info@meetinglawyers.com"
  },
  "license": {
    "type": "Copyright",
    "text": "Copyright © 2021 MeetingLawyers S.L. All rights reserved."
  },
  "homepage": "https://www.meetinglawyers.com",
  "platforms": {
    "ios": "13.0"
  },
  "swift_versions": "5.5",
  "module_name": "MeetingLawyersSchema",
  "ios": {
    "frameworks": [
      "Foundation",
      "UIKit",
      "AdSupport"
    ],
    "vendored_frameworks": "MeetingLawyers/MeetingLawyersSchema.xcframework",
    "dependencies": {
      "MeetingLawyers-Core": [
        "1.2.0-migration17"
      ]
    }
  },
  "pod_target_xcconfig": {
    "EXCLUDED_ARCHS[sdk=iphonesimulator*]": "arm64",
    "BUILD_LIBRARY_FOR_DISTRIBUTION": "YES"
  },
  "source": {
    "http": "https://meetinglawyers-ios-sdk.s3.eu-west-3.amazonaws.com/legacy-library/1.2.0-migration17/MeetingLawyersSDK_1.2.0-migration17.zip"
  },
  "swift_version": "5.5"
}
