{
  "name": "MeetingLawyers",
  "version": "2.0.0-alpha2",
  "summary": "A short description of MeetingLawyers.",
  "description": "A description example",
  "homepage": "https://www.meetinglawyers.com",
  "license": {
    "type": "Copyright",
    "text": "Copyright © 2022 MeetingLawyers S.L. All rights reserved."
  },
  "authors": {
    "MeetingLawyers": "accounts@meetinglawyers.com"
  },
  "platforms": {
    "ios": "14.0"
  },
  "swift_versions": "5.5",
  "ios": {
    "vendored_frameworks": "MeetingLawyers/MeetingLawyers.xcframework"
  },
  "pod_target_xcconfig": {
    "EXCLUDED_ARCHS[sdk=iphonesimulator*]": "arm64",
    "BUILD_LIBRARY_FOR_DISTRIBUTION": "YES"
  },
  "source": {
    "http": "https://meetinglawyers-ios-sdk.s3.eu-west-3.amazonaws.com/new-sdk/2.0.0-alpha2/MeetingLawyers_2.0.0-alpha2.zip"
  },
  "swift_version": "5.5"
}
