{
  "name": "MeetingLawyersNSE",
  "version": "1.1.0-beta2",
  "summary": "A short description of MeetingLawyersNSE.",
  "description": "A description example",
  "homepage": "https://www.meetinglawyers.com",
  "license": {
    "type": "Copyright",
    "text": "Copyright © 2022 MeetingLawyers S.L. All rights reserved."
  },
  "authors": {
    "Manel Roca": "manel.roca@meetinglawyers.com"
  },
  "platforms": {
    "ios": "13.0"
  },
  "swift_versions": "5.5",
  "ios": {
    "vendored_frameworks": "MeetingLawyersNSE/MeetingLawyersNSE.xcframework"
  },
  "pod_target_xcconfig": {
    "EXCLUDED_ARCHS[sdk=iphonesimulator*]": "arm64",
    "BUILD_LIBRARY_FOR_DISTRIBUTION": "YES"
  },
  "user_target_xcconfig": {
    "EXCLUDED_ARCHS[sdk=iphonesimulator*]": "arm64",
    "BUILD_LIBRARY_FOR_DISTRIBUTION": "YES"
  },
  "source": {
    "http": "https://meetinglawyers-ios-sdk.s3.eu-west-3.amazonaws.com/nse-sdk/1.1.0-beta2/MeetingLawyersNSE_1.1.0-beta2.zip"
  },
  "swift_version": "5.5"
}
