{
  "name": "MeetingLawyers-Socket",
  "version": "1.0.11",
  "summary": "MeetingLawyersSDK Socket Framework for iOS",
  "authors": {
    "MeetingLawyers, S.L.": "info@meetinglawyers.com"
  },
  "license": {
    "type": "Copyright",
    "text": "Copyright © 2021 MeetingLawyers S.L. All rights reserved."
  },
  "source": {
    "http": "https://meetinglawyers-ios-sdk.s3.eu-west-3.amazonaws.com/legacy-library/1.0.11/MeetingLawyersSDK_1.0.11.zip"
  },
  "homepage": "https://www.meetinglawyers.com",
  "platforms": {
    "ios": "13.0"
  },
  "swift_versions": "5.5",
  "module_name": "MeetingLawyersSocket",
  "ios": {
    "frameworks": [
      "Foundation",
      "UIKit"
    ],
    "vendored_frameworks": "MeetingLawyers/MeetingLawyersSocket.xcframework",
    "dependencies": {
      "MeetingLawyers-Core": [
        "1.0.11"
      ],
      "MeetingLawyers-Schema": [
        "1.0.11"
      ],
      "MeetingLawyers-Controller": [
        "1.0.11"
      ],
      "Socket.IO-Client-Swift": [
        "15.2.0"
      ]
    }
  },
  "pod_target_xcconfig": {
    "EXCLUDED_ARCHS[sdk=iphonesimulator*]": "arm64",
    "BUILD_LIBRARY_FOR_DISTRIBUTION": "YES"
  },
  "user_target_xcconfig": {
    "EXCLUDED_ARCHS[sdk=iphonesimulator*]": "arm64",
    "BUILD_LIBRARY_FOR_DISTRIBUTION": "YES"
  },
  "swift_version": "5.5"
}
