{
  "name": "MeetingLawyers-Core",
  "version": "1.2.0-migration2",
  "summary": "MeetingLawyersSDK Core Framework for iOS",
  "authors": {
    "MeetingLawyers, S.L.": "info@meetinglawyers.com"
  },
  "license": {
    "type": "Copyright",
    "text": "Copyright © 2021 MeetingLawyers S.L. All rights reserved."
  },
  "homepage": "https://www.meetinglawyers.com",
  "platforms": {
    "ios": "13.0"
  },
  "swift_versions": "5.5",
  "module_name": "MeetingLawyersCore",
  "ios": {
    "dependencies": {
      "CryptoSwift": [
        "~> 1.0"
      ]
    },
    "frameworks": [
      "Foundation",
      "UIKit",
      "CoreLocation",
      "AVFoundation"
    ],
    "vendored_frameworks": "MeetingLawyers/MeetingLawyersCore.xcframework"
  },
  "pod_target_xcconfig": {
    "EXCLUDED_ARCHS[sdk=iphonesimulator*]": "arm64",
    "BUILD_LIBRARY_FOR_DISTRIBUTION": "YES",
    "INFOPLIST_FILE": "${PODS_TARGET_SRCROOT}/Core/Core/Resource/Info.plist",
    "MEDIQUO_SDK_VERSION": "1.2.0"
  },
  "source": {
    "http": "https://meetinglawyers-ios-sdk.s3.eu-west-3.amazonaws.com/legacy-library/1.2.0-migration2/MeetingLawyersSDK_1.2.0-migration2.zip"
  },
  "swift_version": "5.5"
}
