{
  "name": "MeetingLawyers",
  "version": "0.0.5",
  "summary": "A short description of MeetingLawyers.",
  "description": "A description example",
  "homepage": "https://www.meetinglawyers.com",
  "license": {
    "type": "Copyright",
    "text": "Copyright © 2022 MeetingLawyers S.L. All rights reserved."
  },
  "authors": {
    "Manel Roca": "manel.roca@meetinglawyers.com"
  },
  "platforms": {
    "ios": "13.0"
  },
  "swift_versions": "5.5",
  "ios": {
    "vendored_frameworks": "MeetingLawyers/MeetingLawyers.xcframework",
    "dependencies": {
      "MeetingLawyers-Core": [
        "1.0.10-migration2"
      ],
      "MeetingLawyers-Schema": [
        "1.0.10-migration2"
      ],
      "MeetingLawyers-Controller": [
        "1.0.10-migration2"
      ],
      "MeetingLawyers-Remote": [
        "1.0.10-migration2"
      ],
      "MeetingLawyers-Socket": [
        "1.0.10-migration2"
      ],
      "MeetingLawyers-Storage": [
        "1.0.10-migration2"
      ],
      "MeetingLawyersSDK": [
        "1.0.10-migration2"
      ]
    }
  },
  "dependencies": {
    "MeetNetworkHTTP": [
      "~> 0.1.0"
    ]
  },
  "pod_target_xcconfig": {
    "EXCLUDED_ARCHS[sdk=iphonesimulator*]": "arm64",
    "BUILD_LIBRARY_FOR_DISTRIBUTION": "YES"
  },
  "source": {
    "http": "https://meetinglawyers.jfrog.io/artifactory/iOS/sdk/0.0.5/MeetingLawyers_0.0.5.zip"
  },
  "swift_version": "5.5"
}
