{
  "name": "MeetingLawyersSDK",
  "version": "1.2.0-migration5",
  "summary": "MeetingLawyersSDK Framework for iOS",
  "authors": {
    "MeetingLawyers, S.L.": "info@meetinglawyers.com"
  },
  "license": {
    "type": "Copyright",
    "text": "Copyright © 2021 MeetingLawyers S.L. All rights reserved."
  },
  "homepage": "https://www.meetinglawyers.com",
  "platforms": {
    "ios": "13.0"
  },
  "swift_versions": "5.5",
  "module_name": "MeetingLawyersSDK",
  "ios": {
    "frameworks": [
      "Foundation",
      "CoreLocation",
      "UIKit",
      "Photos",
      "StoreKit"
    ],
    "vendored_frameworks": "MeetingLawyers/MeetingLawyersSDK.xcframework",
    "dependencies": {
      "MeetingLawyers-Core": [
        "1.2.0-migration5"
      ],
      "MeetingLawyers-Schema": [
        "1.2.0-migration5"
      ],
      "MeetingLawyers-Controller": [
        "1.2.0-migration5"
      ],
      "MeetingLawyers-Remote": [
        "1.2.0-migration5"
      ],
      "MeetingLawyers-Socket": [
        "1.2.0-migration5"
      ],
      "MeetingLawyers-Storage": [
        "1.2.0-migration5"
      ],
      "AlamofireImage": [
        "3.6.0"
      ],
      "MessageKit": [
        "2.0.0"
      ],
      "R.swift": [
        "5.1.0"
      ],
      "Swinject": [
        "2.6.0"
      ],
      "SwinjectStoryboard": [
        "2.2.0"
      ],
      "RxCocoa": [
        "6.5.0"
      ],
      "SDWebImage": [
        "5.0"
      ],
      "OpenTok": [
        "2.22.3"
      ],
      "TUSKit": [
        "3.1.5"
      ]
    }
  },
  "pod_target_xcconfig": {
    "EXCLUDED_ARCHS[sdk=iphonesimulator*]": "arm64",
    "BUILD_LIBRARY_FOR_DISTRIBUTION": "YES",
    "INFOPLIST_FILE": "${PODS_TARGET_SRCROOT}/MediQuo/MediQuo/Resource/Info.plist",
    "MEDIQUO_SDK_VERSION": "1.2.0"
  },
  "source": {
    "http": "https://meetinglawyers-ios-sdk.s3.eu-west-3.amazonaws.com/legacy-library/1.2.0-migration5/MeetingLawyersSDK_1.2.0-migration5.zip"
  },
  "swift_version": "5.5"
}
