{
  "name": "MeetingLawyersNSE",
  "version": "0.0.1",
  "summary": "A short description of MeetingLawyersNSE.",
  "description": "A description example",
  "homepage": "https://www.meetinglawyers.com",
  "license": {
    "type": "Copyright",
    "text": "Copyright © 2022 MeetingLawyers S.L. All rights reserved."
  },
  "authors": {
    "Manel Roca": "manel.roca@meetinglawyers.com"
  },
  "platforms": {
    "ios": "13.0"
  },
  "swift_versions": "5.5",
  "ios": {
    "vendored_frameworks": "MeetingLawyersNSE/MeetingLawyersNSE.xcframework"
  },
  "pod_target_xcconfig": {
    "EXCLUDED_ARCHS[sdk=iphonesimulator*]": "arm64",
    "BUILD_LIBRARY_FOR_DISTRIBUTION": "YES"
  },
  "user_target_xcconfig": {
    "EXCLUDED_ARCHS[sdk=iphonesimulator*]": "arm64",
    "BUILD_LIBRARY_FOR_DISTRIBUTION": "YES"
  },
  "dependencies": {
    "MeetNetworkHTTP": [
      "~> 0.0.5"
    ]
  },
  "source": {
    "http": "https://meetinglawyers.jfrog.io/artifactory/iOS/sdk-nse/0.0.1/MeetingLawyersNSE_0.0.1.zip"
  },
  "swift_version": "5.5"
}
